%YAML 1.1
%TAG !u! tag:unity3d.com,2011:
--- !u!1045 &1
EditorBuildSettings:
  m_ObjectHideFlags: 0
  serializedVersion: 2
  m_Scenes:
  - enabled: 1
    path: Assets/Scenes/ScrambleMenu.unity
    guid: 7de7f53f001c8ef40b4dfd6f9d91d820
  - enabled: 1
    path: Assets/Scenes/ScrambleGame.unity
    guid: b8451578f420fc44795bdbf66f461fa7
  m_configObjects: {}
